<?xml version="1.0" encoding="utf-8"?>
<!-- Generator: Adobe Illustrator 18.0.0, SVG Export Plug-In . SVG Version: 6.00 Build 0)  -->
<!DOCTYPE svg PUBLIC "-//W3C//DTD SVG 1.1//EN" "http://www.w3.org/Graphics/SVG/1.1/DTD/svg11.dtd">
<svg version="1.1" id="Layer_1" xmlns="http://www.w3.org/2000/svg" xmlns:xlink="http://www.w3.org/1999/xlink" x="0px" y="0px"
	 viewBox="0 0 42 42" enable-background="new 0 0 42 42" xml:space="preserve">
<rect x="0" y="0" fill="#3E2723" width="41.9" height="41.9"/>
<g id="XMLID_64597_">
	<path id="XMLID_64600_" fill="#FFFFFF" d="M25.1,11h-8.1c-3.3,0-6,2.7-6,6v8.1c0,3.3,2.7,6,6,6h8.1c3.3,0,6-2.7,6-6v-8.1
		C31,13.6,28.4,11,25.1,11z M29,25.1c0,2.2-1.8,4-4,4h-8.1c-2.2,0-4-1.8-4-4v-8.1c0-2.2,1.8-4,4-4h8.1c2.2,0,4,1.8,4,4V25.1L29,25.1
		z"/>
	<path id="XMLID_64599_" fill="#FFFFFF" d="M21,15.8c-2.9,0-5.2,2.3-5.2,5.2s2.3,5.2,5.2,5.2s5.2-2.3,5.2-5.2S23.9,15.8,21,15.8z
		 M21,24.2c-1.8,0-3.2-1.4-3.2-3.2s1.4-3.2,3.2-3.2c1.8,0,3.2,1.4,3.2,3.2C24.2,22.8,22.8,24.2,21,24.2z"/>
	<circle id="XMLID_64598_" fill="#FFFFFF" cx="26.2" cy="15.8" r="1.2"/>
</g>
</svg>
